[
  {
    "sigla": "GO",
    "id_cidade": 2,
    "nome": "LUZIANIA",
    "cidades": [
      "Jardim Ingá",
      "Mingone",
      "Marília"
    ]
  },
  {
    "sigla": "GO",
    "id_cidade": 1,
    "nome": "VALPARAÍSO",
    "cidades": [
      "Etapa A",
      "Pacaembu",
      "Céu Azul"
    ]
  },
  {
    "sigla": "GO",
    "id_cidade": 3,
    "nome": "OCIDENTAL",
    "cidades": [
      "Friburgo",
      "Centro",
      "Flamboiant"
    ]
  }
]