[
  {
    "sigla": "GO",
    "nome": "LUZIÂNIA",
    "estados": [
      "Jardim Ingá",
      "Parque IX"
    ]
  },

  {
    "sigla": "GO",
    "nome": "VALPARAÍSO",
    "estados": [
      "Céu Azul",
      "Pacaembu",
      "Etapa A"
    ]
  }

]